%YAML 1.1
%TAG !u! tag:unity3d.com,2011:
--- !u!114 &11400000
MonoBehaviour:
  m_ObjectHideFlags: 0
  m_CorrespondingSourceObject: {fileID: 0}
  m_PrefabInstance: {fileID: 0}
  m_PrefabAsset: {fileID: 0}
  m_GameObject: {fileID: 0}
  m_Enabled: 1
  m_EditorHideFlags: 0
  m_Script: {fileID: 11500000, guid: f76e9bb9834b8f14192855082d0a06b9, type: 3}
  m_Name: Warrior
  m_EditorClassIdentifier: 
  _characterStats:
    level: 2
    dead: 1
    baseHP: 20
    baseStrength: 5
    strengthMultiply: 1.1
    healthMultiply: 1.1
